R Studioで計量経済分析(2)
…
Rows: 1386 Columns: 44
── Column specification ────────────────────────────────────────────────────────
Delimiter: ","
chr (34): STRUCTURE, STRUCTURE_ID, STRUCTURE_NAME, ACTION, REF_AREA, Referen...
dbl  (4): TIME_PERIOD, OBS_VALUE, DECIMALS, UNIT_MULT
lgl  (6): Time period, Observation value, OBS_STATUS2, Observation status 2,...

ℹ Use `spec()` to retrieve the full column specification for this data.
ℹ Specify the column types or set `show_col_types = FALSE` to quiet this message.

# データを表示してみる
life_exp_2

# A tibble: 1,386 × 44
   STRUCTURE STRUCTURE_ID  STRUCTURE_NAME ACTION REF_AREA `Reference area` FREQ 
   <chr>     <chr>         <chr>          <chr>  <chr>    <chr>            <chr>
 1 DATAFLOW  OECD.ELS.HD:… Health status  I      AUS      Australia        A    
 2 DATAFLOW  OECD.ELS.HD:… Health status  I      AUS      Australia        A    
 3 DATAFLOW  OECD.ELS.HD:… Health status  I      AUS      Australia        A    
 4 DATAFLOW  OECD.ELS.HD:… Health status  I      AUS      Australia        A    
 5 DATAFLOW  OECD.ELS.HD:… Health status  I      AUS      Australia        A    
 6 DATAFLOW  OECD.ELS.HD:… Health status  I      AUS      Australia        A    
 7 DATAFLOW  OECD.ELS.HD:… Health status  I      AUS      Australia        A    
 8 DATAFLOW  OECD.ELS.HD:… Health status  I      AUS      Australia        A    
 9 DATAFLOW  OECD.ELS.HD:… Health status  I      AUS      Australia        A    
10 DATAFLOW  OECD.ELS.HD:… Health status  I      AUS      Australia        A    
# ℹ 1,376 more rows
# ℹ 37 more variables: `Frequency of observation` <chr>, MEASURE <chr>,
#   Measure <chr>, UNIT_MEASURE <chr>, `Unit of measure` <chr>, AGE <chr>,
#   Age <chr>, SEX <chr>, Sex <chr>, SOCIO_ECON_STATUS <chr>,
#   `Socio-economic status` <chr>, DEATH_CAUSE <chr>, `Cause of death` <chr>,
#   CALC_METHODOLOGY <chr>, `Calculation methodology` <chr>,
#   GESTATION_THRESHOLD <chr>, `Gestation period threshold` <chr>, …
…
# readxlパッケージのダウンロード
install.packages("readxl")

# readxlパッケージの読み込み
library(readxl)

ここでは令和5年東京都国・地域別外国人旅行者行動特性調査のexcelデータを読み込む。

Tokyo_r5 <- read_xlsx("C:/Users/narita yoshiyuki/Desktop/相澤ゼミ_資料/TA/Aizawa_seminar_TA/R_Studio_lec/data/【R5】国・地域別外国人旅行者行動特性調査.xlsx")

# 読み込んだデータを表示してみる
Tokyo_r5

# A tibble: 11,327 × 227
   調査日               国籍 居住地  性別  年齢 入国空港 訪都有無 都内泊数
   <dttm>              <dbl>  <dbl> <dbl> <dbl>    <dbl>    <dbl>    <dbl>
 1 2023-02-22 00:00:00    15      6     1    51        2        1       17
 2 2023-02-22 00:00:00     3      3     1    39        2        1        4
 3 2023-02-22 00:00:00    12     12     1    28        2        1        6
 4 2023-02-22 00:00:00     8      8     2    27        2        1        8
 5 2023-02-22 00:00:00    18     18     1    42        2        1       13
 6 2023-02-22 00:00:00     2      2     1    45        2        1        4
 7 2023-02-22 00:00:00     2      2     1    22        2        1        2
 8 2023-02-22 00:00:00    12     12     1    23        2        1        3
 9 2023-02-22 00:00:00    12     12     1    22        2        1       14
10 2023-02-22 00:00:00    21     21     1    29        2        1        6
# ℹ 11,317 more rows
# ℹ 219 more variables: 訪都回数 <dbl>, 訪都目的 <dbl>, 同行者1 <dbl>,
#   同行者2 <dbl>, 同行者3 <dbl>, 同行者4 <dbl>, 同行者5 <dbl>, 同行者6 <dbl>,
#   宿泊施設1 <dbl>, 宿泊施設2 <dbl>, 宿泊施設3 <dbl>, 宿泊施設4 <dbl>,
#   宿泊施設5 <dbl>, 宿泊施設6 <dbl>, 宿泊施設7 <dbl>, 旅行形態 <dbl>,
#   ツアー価格 <dbl>, 航空運賃 <dbl>, マイレージ有無 <dbl>, 支出総額 <dbl>,
#   宿泊費 <dbl>, 飲食費 <dbl>, 都内交通費 <dbl>, 娯楽費 <dbl>, 買物費 <dbl>, …
…
